{
    "statuses": [
        {
            "created_at": "Mon Aug 26 09:26:54 +0000 2019",
            "id": 1165918533621956600,
            "id_str": "1165918533621956608",
            "full_text": "@SyVictor @IvanHeusen Nakakawala kasi ng damit yung bagyo 🤐",
            "truncated": false,
            "display_text_range": [
                22,
                59
            ],
            "entities": {
                "hashtags": [],
                "symbols": [],
                "user_mentions": [
                    {
                        "screen_name": "SyVictor",
                        "name": "Vic🦁",
                        "id": 179910617,
                        "id_str": "179910617",
                        "indices": [
                            0,
                            9
                        ]
                    },
                    {
                        "screen_name": "IvanHeusen",
                        "name": "Ivan Cyrill H. Tonog",
                        "id": 159426880,
                        "id_str": "159426880",
                        "indices": [
                            10,
                            21
                        ]
                    }
                ],
                "urls": []
            },
            "metadata": {
                "iso_language_code": "tl",
                "result_type": "recent"
            },
            "source": "<a href=\"http://twitter.com/download/iphone\" rel=\"nofollow\">Twitter for iPhone</a>",
            "in_reply_to_status_id": 1165886639324876800,
            "in_reply_to_status_id_str": "1165886639324876800",
            "in_reply_to_user_id": 179910617,
            "in_reply_to_user_id_str": "179910617",
            "in_reply_to_screen_name": "SyVictor",
            "user": {
                "id": 3252746832,
                "id_str": "3252746832",
                "name": "Ley Kevin Fernandez",
                "screen_name": "leykevinf",
                "location": "Quezon City, National Capital Region",
                "description": "Instagram: leykevinf",
                "url": null,
                "entities": {
                    "description": {
                        "urls": []
                    }
                },
                "protected": false,
                "followers_count": 235,
                "friends_count": 170,
                "listed_count": 0,
                "created_at": "Mon Jun 22 15:01:21 +0000 2015",
                "favourites_count": 801,
                "utc_offset": null,
                "time_zone": null,
                "geo_enabled": true,
                "verified": false,
                "statuses_count": 2440,
                "lang": null,
                "contributors_enabled": false,
                "is_translator": false,
                "is_translation_enabled": false,
                "profile_background_color": "C0DEED",
                "profile_background_image_url": "http://abs.twimg.com/images/themes/theme1/bg.png",
                "profile_background_image_url_https": "https://abs.twimg.com/images/themes/theme1/bg.png",
                "profile_background_tile": false,
                "profile_image_url": "http://pbs.twimg.com/profile_images/1160981680053555200/onIDNSru_normal.jpg",
                "profile_image_url_https": "https://pbs.twimg.com/profile_images/1160981680053555200/onIDNSru_normal.jpg",
                "profile_banner_url": "https://pbs.twimg.com/profile_banners/3252746832/1565634578",
                "profile_link_color": "ABB8C2",
                "profile_sidebar_border_color": "000000",
                "profile_sidebar_fill_color": "000000",
                "profile_text_color": "000000",
                "profile_use_background_image": true,
                "has_extended_profile": true,
                "default_profile": false,
                "default_profile_image": false,
                "following": false,
                "follow_request_sent": false,
                "notifications": false,
                "translator_type": "none"
            },
            "geo": null,
            "coordinates": null,
            "place": null,
            "contributors": null,
            "is_quote_status": false,
            "retweet_count": 0,
            "favorite_count": 0,
            "favorited": false,
            "retweeted": false,
            "lang": "tl"
        }
    ],
    "search_metadata": {
        "completed_in": 0.035,
        "max_id": 1165918533621956600,
        "max_id_str": "1165918533621956608",
        "next_results": "?max_id=1165918533621956607&q=bagyo%20%F0%9F%A4%90&lang=tl&count=100&include_entities=1",
        "query": "bagyo+%F0%9F%A4%90",
        "refresh_url": "?since_id=1165918533621956608&q=bagyo%20%F0%9F%A4%90&lang=tl&include_entities=1",
        "count": 100,
        "since_id": 0,
        "since_id_str": "0"
    }
}