{
    "request_time": 1566921454564,
    "response_time": 1566921455375,
    "count": 6,
    "next_results": "?max_id=1165074805294428159&q=bagyo%20%E2%98%BA&lang=tl&count=100&include_entities=1",
    "search_term": "bagyo",
    "search_filter": "☺"
}