{
    "request_time": 1566921527220,
    "response_time": 1566921528164,
    "count": 10,
    "next_results": "?max_id=1165278319232741375&q=bagyo%20%E2%98%B9&lang=tl&count=100&include_entities=1",
    "search_term": "bagyo",
    "search_filter": "☹"
}